{
	"name": "Hydra",
	"version": "1.0.0",
	"descriptionmsg": "hydra-skin-desc",
	"namemsg": "skinname-hydra",
	"license-name": "GPL-2.0-or-later",
	"type": "skin",
	"requires": {
		"MediaWiki": ">= 1.31.0",
		"extensions": {
			"HydraCore": ">= 3.0.0"
		}
	},
	"ConfigRegistry": {
		"hydraskin": "GlobalVarConfig::newInstance"
	},
	"config": {
		"AdIdAppend": null,
		"AdLightExperience": false,
		"HydraSkinBodyName": "",
		"HydraSkinDisclaimer": "",
		"HydraSkinHideSideRailPages": [],
		"HydraSkinShowAnchorAd": false,
		"HydraSkinShowFooterAd": true,
		"HydraSkinShowSideRail": true,
		"IsOfficialWiki": false,
		"SideRailCollapseWidth": 1350,
		"SideRailWidth": 310,
		"SiteAdSlots": [],
		"SiteIdSlots": [],
		"SiteJsSlots": [],
		"SiteMiscSlots": []
	},
	"ValidSkinNames": {
		"hydra": "Hydra"
	},
	"MessagesDirs": {
		"Hydra": [
			"i18n"
		]
	},
	"ResourceModules": {
		"skins.z.hydra.light.styles": {
			"styles": {
				"css/hydra.css": {
					"media": "screen"
				}
			},
			"targets": [
				"desktop",
				"mobile"
			]
		},
		"skins.hydra.footer": {
			"styles": [
				"css/footer.css"
			],
			"targets": [
				"desktop",
				"mobile"
			],
			"position": "top"
		},
		"skins.hydra.footer.js": {
			"scripts": [
				"js/ResizeSensor.js",
				"js/footer.js"
			],
			"targets": [
				"desktop"
			],
			"position": "top"
		},
		"skins.hydra.netbar": {
			"styles": [
				"css/netbar.css"
			],
			"targets": [
				"desktop",
				"mobile"
			],
			"position": "top"
		},
		"skins.hydra.googlefont.styles": {
			"styles": [
				"css/googlefont.css"
			],
			"targets": [
				"desktop",
				"mobile"
			],
			"position": "top"
		},
		"skins.hydra.advertisements.styles": {
			"class": "ResourceLoaderLessVariableModule",
			"styles": [
				"css/advertisements.less"
			],
			"targets": [
				"desktop",
				"mobile"
			],
			"position": "top"
		},
		"skins.hydra.advertisements.js": {
			"scripts": [
				"js/siderail.js"
			],
			"targets": [
				"desktop"
			],
			"position": "top"
		},
		"skins.hydra.mobile.apu.js": {
			"scripts": [
				"js/mobileads.js"
			],
			"targets": [
				"mobile"
			],
			"position": "top"
		},
		"skins.hydra.anchor.apu.js": {
			"scripts": [
				"js/anchorad.js"
			],
			"targets": [
				"desktop",
				"mobile"
			],
			"position": "top"
		},
		"skins.hydra.smartbanner": {
			"styles": [
				"css/smartbanner.css"
			],
			"scripts": [
				"js/jquery.smartbanner.js"
			],
			"targets": [
				"mobile"
			],
			"position": "top"
		},
		"skins.hydra.mobile.styles": {
			"styles": [
				"css/mobile.css"
			],
			"targets": [
				"mobile"
			]
		}
	},
	"ResourceModuleSkinStyles": {
		"hydra": {
			"jquery.tipsy": "../Vector/skinStyles/jquery.tipsy.less",
			"jquery.ui.core": [
				"../Vector/skinStyles/jquery.ui/jquery.ui.core.css",
				"../Vector/skinStyles/jquery.ui/jquery.ui.theme.css"
			],
			"jquery.ui.accordion": "../Vector/skinStyles/jquery.ui/jquery.ui.accordion.css",
			"jquery.ui.autocomplete": "../Vector/skinStyles/jquery.ui/jquery.ui.autocomplete.css",
			"jquery.ui.button": "../Vector/skinStyles/jquery.ui/jquery.ui.button.css",
			"jquery.ui.datepicker": "../Vector/skinStyles/jquery.ui/jquery.ui.datepicker.css",
			"jquery.ui.dialog": "../Vector/skinStyles/jquery.ui/jquery.ui.dialog.css",
			"jquery.ui.menu": "../Vector/skinStyles/jquery.ui/jquery.ui.menu.css",
			"jquery.ui.progressbar": "../Vector/skinStyles/jquery.ui/jquery.ui.progressbar.css",
			"jquery.ui.resizable": "../Vector/skinStyles/jquery.ui/jquery.ui.resizable.css",
			"jquery.ui.selectable": "../Vector/skinStyles/jquery.ui/jquery.ui.selectable.css",
			"jquery.ui.slider": "../Vector/skinStyles/jquery.ui/jquery.ui.slider.css",
			"jquery.ui.tabs": "../Vector/skinStyles/jquery.ui/jquery.ui.tabs.css",
			"jquery.ui.tooltips": "../Vector/skinStyles/jquery.ui/jquery.ui.tooltips.css",
			"+mediawiki.action.view.redirectPage": "../Vector/skinStyles/mediawiki.action.view.redirectPage.less",
			"+mediawiki.notification": "../Vector/skinStyles/mediawiki.notification.less",
			"+oojs-ui-core.styles": "../Vector/skinStyles/ooui.less",
			"mediawiki.special": "../Vector/skinStyles/mediawiki.special.less"
		}
	},
	"ResourceFileModulePaths": {
		"localBasePath": "",
		"remoteSkinPath": "Hydra"
	},
	"AutoloadClasses": {
		"ResourceLoaderLessVariableModule": "modules/ResourceLoaderLessVariableModule.php",
		"HydraTemplate": "HydraTemplate.php",
		"HydraHooks": "HydraHooks.php",
		"SkinHydra": "SkinHydra.php"
	},
	"Hooks": {
		"BottomPlacements": "HydraHooks::onBottomPlacements",
		"MobileMenu": "HydraHooks::onMobileMenu",
		"OutputPageBodyAttributes": "HydraHooks::onOutputPageBodyAttributes",
		"SideRailPlacements": "HydraHooks::onSideRailPlacements",
		"SkinMinervaDefaultModules": "HydraHooks::onSkinMinervaDefaultModules",
		"SkinPreloadExistence": "HydraHooks::onSkinPreloadExistence",
		"SkinTemplateNavigation": "HydraHooks::onSkinTemplateNavigation",
		"SkinTemplateOutputPageBeforeExec": "HydraHooks::onSkinTemplateOutputPageBeforeExec",
		"SkinVectorStyleModules": "HydraHooks::onSkinVectorStyleModules"

	},
	"manifest_version": 1
}
